hw/vcds/fetch_tb.vcd
$date
	Tue Aug  6 14:13:43 2024
$end
$version
	Icarus Verilog
$end
$timescale
	1ps
$end
$scope module fetch_tb $end
$var wire 1 ! wb_stall $end
$var wire 32 " wb_rd_data [31:0] $end
$var wire 1 # wb_ack $end
$var wire 32 $ pc [31:0] $end
$var wire 1 % next_clk_en $end
$var wire 1 & main_memory_instr_req $end
$var wire 32 ' main_memory_instr_addr [31:0] $end
$var wire 1 ( main_memory_instr_ack $end
$var wire 32 ) main_memory_instr [31:0] $end
$var wire 32 * fetch_instr [31:0] $end
$var parameter 32 + ADDR_WIDTH $end
$var parameter 32 , CLK_PERIOD $end
$var parameter 32 - CLK_PERIOD_HALF $end
$var parameter 32 . CLK_PERIOD_QUAR $end
$var parameter 32 / MEMORY_BYTES $end
$var parameter 32 0 MEMORY_DEPTH $end
$var parameter 32 1 PC_RESET $end
$var reg 1 2 clk $end
$var reg 1 3 execute_change_pc $end
$var reg 32 4 execute_next_pc [31:0] $end
$var reg 1 5 flush $end
$var reg 1 6 rst $end
$var reg 1 7 stall $end
$var reg 32 8 wb_addr [31:0] $end
$var reg 1 9 wb_cyc $end
$var reg 1 : wb_stb $end
$var reg 32 ; wb_wr_data [31:0] $end
$var reg 1 < wb_wr_en $end
$var reg 4 = wb_wr_sel [3:0] $end
$var reg 1 > writeback_change_pc $end
$var reg 32 ? writeback_next_pc [31:0] $end
$var integer 32 @ errors [31:0] $end
$var integer 32 A totals [31:0] $end
$scope module fetch_inst $end
$var wire 1 B change_pc $end
$var wire 1 2 clk $end
$var wire 1 C disable_next_stage $end
$var wire 1 D enable_update_registers $end
$var wire 1 3 execute_change_pc $end
$var wire 32 E execute_next_pc [31:0] $end
$var wire 1 5 flush $end
$var wire 1 & main_memory_instr_req $end
$var wire 1 6 rst $end
$var wire 1 7 stall $end
$var wire 1 F stall_bit $end
$var wire 1 > writeback_change_pc $end
$var wire 32 G writeback_next_pc [31:0] $end
$var wire 1 ( main_memory_instr_ack $end
$var wire 32 H main_memory_instr [31:0] $end
$var parameter 32 I PC_RESET $end
$var reg 32 J fetch_instr [31:0] $end
$var reg 32 K main_memory_instr_addr [31:0] $end
$var reg 1 % next_clk_en $end
$var reg 32 L pc [31:0] $end
$var reg 32 M prev_pc [31:0] $end
$var reg 1 N r_clk_en $end
$var reg 1 O r_clk_en_d $end
$var reg 32 P r_main_memory_instr_addr [31:0] $end
$var reg 1 Q r_stall $end
$var reg 32 R stalled_instr [31:0] $end
$var reg 32 S stalled_pc [31:0] $end
$upscope $end
$scope module main_memory_inst $end
$var wire 1 2 clk $end
$var wire 10 T instr_addr [9:0] $end
$var wire 1 & instr_stb $end
$var wire 10 U wb_addr [9:0] $end
$var wire 1 9 wb_cyc $end
$var wire 1 ! wb_stall $end
$var wire 1 : wb_stb $end
$var wire 32 V wb_wr_data [31:0] $end
$var wire 1 < wb_wr_en $end
$var wire 4 W wb_wr_sel [3:0] $end
$var parameter 32 X ADDR_WIDTH $end
$var parameter 32 Y MEMORY_BYTES $end
$var parameter 32 Z MEMORY_DEPTH $end
$var parameter 112 [ MEMORY_HEX $end
$var reg 32 \ instr [31:0] $end
$var reg 1 ( instr_ack $end
$var reg 1 # wb_ack $end
$var reg 32 ] wb_rd_data [31:0] $end
$scope begin sync_read_process $end
$upscope $end
$scope begin sync_write_process $end
$upscope $end
$upscope $end
$scope task instruction_fetch $end
$upscope $end
$scope task reset $end
$upscope $end
$scope task test_execute_change_pc $end
$upscope $end
$scope task test_fetch $end
$upscope $end
$scope task test_writeback_change_pc $end
$upscope $end
$upscope $end
$enddefinitions $end
$comment Show the parameter values. $end
$dumpall
b10111000101111011010000110010101111000011100110010111101100001011001000110010000101110011010000110010101111000 [
b100000000 Z
b10000000000 Y
b1010 X
b0 I
b0 1
b100000000 0
b10000000000 /
b10 .
b101 -
b1010 ,
b1010 +
$end
#0
$dumpvars
b0 ]
b0 \
b0 W
b0 V
b0 U
b0 T
b0 S
b0 R
0Q
b100 P
0O
0N
b0 M
b0 L
b0 K
b0 J
b0 H
b0 G
1F
b0 E
0D
0C
0B
b0 A
b0 @
b0 ?
0>
b0 =
0<
b0 ;
0:
09
b0 8
07
16
05
b0 4
03
02
b0 *
b0 )
0(
b0 '
0&
0%
b0 $
0#
b0 "
0!
$end
#5000
b110010000000000000010010011 "
b110010000000000000010010011 ]
b110010000000000000010010011 )
b110010000000000000010010011 H
b110010000000000000010010011 \
12
#10000
06
02
#15000
1D
1O
b100 P
1F
1&
1N
b110010000000000000010010011 R
12
#20000
02
#25000
0F
1O
b1000 P
b100 T
b110010000000000000010010011 *
b110010000000000000010010011 J
b100 '
b100 K
1(
12
#26000
b1 A
#30000
02
#35000
1O
b1100 P
b1000 T
b100 M
1%
b1000 '
b1000 K
b1001011000000000000100010011 )
b1001011000000000000100010011 H
b1001011000000000000100010011 \
12
#36000
b10 A
#40000
02
#45000
1O
b10000 P
b1100 T
b1000 M
b1001011000000000000100010011 *
b1001011000000000000100010011 J
b100 $
b100 L
b1100 '
b1100 K
b1000001000000110110011 )
b1000001000000110110011 H
b1000001000000110110011 \
12
#46000
b11 A
#50000
02
#55000
1O
b10100 P
b10000 T
b1100 M
b1000001000000110110011 *
b1000001000000110110011 J
b1000 $
b1000 L
b10000 '
b10000 K
b11110110101000000000001000010011 )
b11110110101000000000001000010011 H
b11110110101000000000001000010011 \
12
#56000
b100 A
#60000
02
#65000
1O
b11000 P
b10100 T
b10000 M
b11110110101000000000001000010011 *
b11110110101000000000001000010011 J
b1100 $
b1100 L
b10100 '
b10100 K
b100100000001010110011 )
b100100000001010110011 H
b100100000001010110011 \
12
#66000
b101 A
#70000
02
#75000
1O
b11100 P
b11000 T
b10100 M
b100100000001010110011 *
b100100000001010110011 J
b10000 $
b10000 L
b11000 '
b11000 K
b1000100000001100110011 )
b1000100000001100110011 H
b1000100000001100110011 \
12
#76000
b110 A
#80000
02
#85000
1O
b100000 P
b11100 T
b11000 M
b1000100000001100110011 *
b1000100000001100110011 J
b10100 $
b10100 L
b11100 '
b11100 K
b1000001000000000110011 )
b1000001000000000110011 H
b1000001000000000110011 \
12
#86000
b111 A
#90000
02
#95000
1O
b100100 P
b100000 T
b11100 M
b1000001000000000110011 *
b1000001000000000110011 J
b11000 $
b11000 L
b100000 '
b100000 K
b1111101000000000001110010011 )
b1111101000000000001110010011 H
b1111101000000000001110010011 \
12
#96000
b1000 A
#100000
02
#105000
1O
b101000 P
b100100 T
b100000 M
b1111101000000000001110010011 *
b1111101000000000001110010011 J
b11100 $
b11100 L
b100100 '
b100100 K
b10000000111000010001100011 )
b10000000111000010001100011 H
b10000000111000010001100011 \
12
#106000
b1001 A
#110000
02
#115000
1O
b101100 P
b101000 T
b100100 M
b10000000111000010001100011 *
b10000000111000010001100011 J
b100000 $
b100000 L
b101000 '
b101000 K
b11111100111000000000010000010011 )
b11111100111000000000010000010011 H
b11111100111000000000010000010011 \
12
#116000
b1010 A
#120000
1C
1B
0O
b10000 P
b10000 4
b10000 E
13
02
#125000
0D
b10000 T
b10000 P
1F
b101000 M
0%
b11111100111000000000010000010011 *
b11111100111000000000010000010011 J
b100100 $
b100100 L
b10000 '
b10000 K
0&
0N
b10000001000000000001100011 )
b10000001000000000001100011 H
b10000001000000000001100011 \
12
#127000
0C
0B
b10100 P
03
#130000
02
#135000
1D
1O
b10100 P
1F
1&
1N
b10000 M
b10000001000000000001100011 R
b101000 S
b100100000001010110011 )
b100100000001010110011 H
b100100000001010110011 \
0(
12
#136000
b1011 A
#140000
02
#145000
0F
1O
b11000 P
b10100 T
b100100000001010110011 R
b10000 S
b100100000001010110011 *
b100100000001010110011 J
b10000 $
b10000 L
b10100 '
b10100 K
1(
12
#146000
b1100 A
#150000
02
#155000
1O
b11100 P
b11000 T
b10100 M
1%
b11000 '
b11000 K
b1000100000001100110011 )
b1000100000001100110011 H
b1000100000001100110011 \
12
#156000
b1101 A
#160000
02
#165000
1O
b100000 P
b11100 T
b11000 M
b1000100000001100110011 *
b1000100000001100110011 J
b10100 $
b10100 L
b11100 '
b11100 K
b1000001000000000110011 )
b1000001000000000110011 H
b1000001000000000110011 \
12
#166000
b1110 A
#170000
02
#175000
1O
b100100 P
b100000 T
b11100 M
b1000001000000000110011 *
b1000001000000000110011 J
b11000 $
b11000 L
b100000 '
b100000 K
b1111101000000000001110010011 )
b1111101000000000001110010011 H
b1111101000000000001110010011 \
12
#176000
b1111 A
#180000
1C
1B
0O
b11000 P
b11000 ?
b11000 G
1>
02
#185000
b11000 T
b11000 P
1F
b100000 M
0%
b1111101000000000001110010011 *
b1111101000000000001110010011 J
b11100 $
b11100 L
b11000 '
b11000 K
0&
0N
b10000000111000010001100011 )
b10000000111000010001100011 H
b10000000111000010001100011 \
12
#187000
0C
0B
0D
b11100 P
0>
#190000
02
#195000
1D
1O
b11100 P
1F
1&
1N
b11000 M
b10000000111000010001100011 R
b100000 S
b1000001000000000110011 )
b1000001000000000110011 H
b1000001000000000110011 \
0(
12
#196000
b10000 A
#200000
02
#205000
0F
1O
b100000 P
b11100 T
b1000001000000000110011 R
b11000 S
b1000001000000000110011 *
b1000001000000000110011 J
b11000 $
b11000 L
b11100 '
b11100 K
1(
12
#206000
b10001 A
#210000
02
#215000
1O
b100100 P
b100000 T
b11100 M
1%
b100000 '
b100000 K
b1111101000000000001110010011 )
b1111101000000000001110010011 H
b1111101000000000001110010011 \
12
#216000
b10010 A
#220000
02
#225000
1O
b101000 P
b100100 T
b100000 M
b1111101000000000001110010011 *
b1111101000000000001110010011 J
b11100 $
b11100 L
b100100 '
b100100 K
b10000000111000010001100011 )
b10000000111000010001100011 H
b10000000111000010001100011 \
12
#226000
b10011 A
#230000
02
#235000
1O
b101100 P
b101000 T
b100100 M
b10000000111000010001100011 *
b10000000111000010001100011 J
b100000 $
b100000 L
b101000 '
b101000 K
b11111100111000000000010000010011 )
b11111100111000000000010000010011 H
b11111100111000000000010000010011 \
12
#236000
b10100 A
#240000
02
#245000
1O
b110000 P
b101100 T
b101000 M
b11111100111000000000010000010011 *
b11111100111000000000010000010011 J
b100100 $
b100100 L
b101100 '
b101100 K
b10000001000000000001100011 )
b10000001000000000001100011 H
b10000001000000000001100011 \
12
#246000
b10101 A
#250000
02
#255000
1O
b110100 P
b110000 T
b101100 M
b10000001000000000001100011 *
b10000001000000000001100011 J
b101000 $
b101000 L
b110000 '
b110000 K
b10001100111001010001100011 )
b10001100111001010001100011 H
b10001100111001010001100011 \
12
#256000
b10110 A
#260000
02
#265000
1O
b111000 P
b110100 T
b110000 M
b10001100111001010001100011 *
b10001100111001010001100011 J
b101100 $
b101100 L
b110100 '
b110100 K
b10010101000001100001100011 )
b10010101000001100001100011 H
b10010101000001100001100011 \
12
#266000
b10111 A
#270000
02
#275000
1O
b111100 P
b111000 T
b110100 M
b10010101000001100001100011 *
b10010101000001100001100011 J
b110000 $
b110000 L
b111000 '
b111000 K
b10011000000001110001100011 )
b10011000000001110001100011 H
b10011000000001110001100011 \
12
#276000
b11000 A
#280000
02
#285000
1O
b1000000 P
b111100 T
b111000 M
b10011000000001110001100011 *
b10011000000001110001100011 J
b110100 $
b110100 L
b111100 '
b111100 K
b100000000000001000001100011 )
b100000000000001000001100011 H
b100000000000001000001100011 \
12
#286000
b11001 A
#290000
02
#295000
1O
b1000100 P
b1000000 T
b111100 M
b100000000000001000001100011 *
b100000000000001000001100011 J
b111000 $
b111000 L
b1000000 '
b1000000 K
b10100010011 )
b10100010011 H
b10100010011 \
12
#296000
b11010 A
#300000
02
#305000
1O
b1001000 P
b1000100 T
b1000000 M
b10100010011 *
b10100010011 J
b111100 $
b111100 L
b1000100 '
b1000100 K
b101110100000000100010010011 )
b101110100000000100010010011 H
b101110100000000100010010011 \
12
#306000
b11011 A
#310000
02
#315000
1O
b1001100 P
b1001000 T
b1000100 M
b101110100000000100010010011 *
b101110100000000100010010011 J
b1000000 $
b1000000 L
b1001000 '
b1001000 K
b100000000000001110011 )
b100000000000001110011 H
b100000000000001110011 \
12
#316000
b11100 A
#320000
02
#325000
1O
b1010000 P
b1001100 T
b1001000 M
b100000000000001110011 *
b100000000000001110011 J
b1000100 $
b1000100 L
b1001100 '
b1001100 K
b100000000010100010011 )
b100000000010100010011 H
b100000000010100010011 \
12
#326000
b11101 A
#330000
02
#335000
1O
b1010100 P
b1010000 T
b1001100 M
b100000000010100010011 *
b100000000010100010011 J
b1001000 $
b1001000 L
b1010000 '
b1010000 K
b101110100000000100010010011 )
b101110100000000100010010011 H
b101110100000000100010010011 \
12
#336000
b11110 A
#340000
02
#345000
1O
b1011000 P
b1010100 T
b1010000 M
b101110100000000100010010011 *
b101110100000000100010010011 J
b1001100 $
b1001100 L
b1010100 '
b1010100 K
b100000000000001110011 )
b100000000000001110011 H
b100000000000001110011 \
12
#346000
b11111 A
#350000
02
#355000
1O
b1011100 P
b1011000 T
b1010100 M
b100000000000001110011 *
b100000000000001110011 J
b1010000 $
b1010000 L
b1011000 '
b1011000 K
b1000000000010100010011 )
b1000000000010100010011 H
b1000000000010100010011 \
12
#356000
b100000 A
#360000
02
#365000
1O
b1100000 P
b1011100 T
b1011000 M
b1000000000010100010011 *
b1000000000010100010011 J
b1010100 $
b1010100 L
b1011100 '
b1011100 K
b101110100000000100010010011 )
b101110100000000100010010011 H
b101110100000000100010010011 \
12
#366000
b100001 A
#370000
02
#375000
1O
b1100100 P
b1100000 T
b1011100 M
b101110100000000100010010011 *
b101110100000000100010010011 J
b1011000 $
b1011000 L
b1100000 '
b1100000 K
b100000000000001110011 )
b100000000000001110011 H
b100000000000001110011 \
12
#376000
b100010 A
#380000
02
#385000
1O
b1101000 P
b1100100 T
b1100000 M
b100000000000001110011 *
b100000000000001110011 J
b1011100 $
b1011100 L
b1100100 '
b1100100 K
b10000000000010100010011 )
b10000000000010100010011 H
b10000000000010100010011 \
12
#386000
b100011 A
#390000
02
#395000
1O
b1101100 P
b1101000 T
b1100100 M
b10000000000010100010011 *
b10000000000010100010011 J
b1100000 $
b1100000 L
b1101000 '
b1101000 K
b101110100000000100010010011 )
b101110100000000100010010011 H
b101110100000000100010010011 \
12
#396000
b100100 A
#400000
02
#405000
1O
b1110000 P
b1101100 T
b1101000 M
b101110100000000100010010011 *
b101110100000000100010010011 J
b1100100 $
b1100100 L
b1101100 '
b1101100 K
b100000000000001110011 )
b100000000000001110011 H
b100000000000001110011 \
12
#406000
b100101 A
#410000
02
#415000
1O
b1110100 P
b1110000 T
b1101100 M
b100000000000001110011 *
b100000000000001110011 J
b1101000 $
b1101000 L
b1110000 '
b1110000 K
b11000000000010100010011 )
b11000000000010100010011 H
b11000000000010100010011 \
12
#416000
b100110 A
#420000
02
#425000
1O
b1111000 P
b1110100 T
b1110000 M
b11000000000010100010011 *
b11000000000010100010011 J
b1101100 $
b1101100 L
b1110100 '
b1110100 K
b101110100000000100010010011 )
b101110100000000100010010011 H
b101110100000000100010010011 \
12
#426000
b100111 A
#430000
02
#435000
1O
b1111100 P
b1111000 T
b1110100 M
b101110100000000100010010011 *
b101110100000000100010010011 J
b1110000 $
b1110000 L
b1111000 '
b1111000 K
b100000000000001110011 )
b100000000000001110011 H
b100000000000001110011 \
12
#436000
b101000 A
#440000
02
#445000
1O
b10000000 P
b1111100 T
b1111000 M
b100000000000001110011 *
b100000000000001110011 J
b1110100 $
b1110100 L
b1111100 '
b1111100 K
b100000000000010100010011 )
b100000000000010100010011 H
b100000000000010100010011 \
12
#446000
b101001 A
#450000
02
#455000
1O
b10000100 P
b10000000 T
b1111100 M
b100000000000010100010011 *
b100000000000010100010011 J
b1111000 $
b1111000 L
b10000000 '
b10000000 K
b101110100000000100010010011 )
b101110100000000100010010011 H
b101110100000000100010010011 \
12
#456000
b101010 A
#460000
02
#465000
1O
b10001000 P
b10000100 T
b10000000 M
b101110100000000100010010011 *
b101110100000000100010010011 J
b1111100 $
b1111100 L
b10000100 '
b10000100 K
b100000000000001110011 )
b100000000000001110011 H
b100000000000001110011 \
12
#466000
b101011 A
#470000
02
#475000
1O
b10001100 P
b10001000 T
b10000100 M
b100000000000001110011 *
b100000000000001110011 J
b10000000 $
b10000000 L
b10001000 '
b10001000 K
b1100101000001 )
b1100101000001 H
b1100101000001 \
12
#476000
b101100 A
#480000
02
#485000
1O
b10010000 P
b10001100 T
b10001000 M
b1100101000001 *
b1100101000001 J
b10000100 $
b10000100 L
b10001100 '
b10001100 K
b1110011011010010111001000000000 )
b1110011011010010111001000000000 H
b1110011011010010111001000000000 \
12
#486000
b101101 A
#490000
02
#495000
1O
b10010100 P
b10010000 T
b10001100 M
b1110011011010010111001000000000 *
b1110011011010010111001000000000 J
b10001000 $
b10001000 L
b10010000 '
b10010000 K
b1000000000111011001100011 )
b1000000000111011001100011 H
b1000000000111011001100011 \
12
#496000
b101110 A
#500000
02
#505000
1O
b10011000 P
b10010100 T
b10010000 M
b1000000000111011001100011 *
b1000000000111011001100011 J
b10001100 $
b10001100 L
b10010100 '
b10010100 K
b1111 )
b1111 H
b1111 \
12
#506000
b101111 A
#510000
02
#515000
1O
b10011100 P
b10011000 T
b10010100 M
b1111 *
b1111 J
b10010000 $
b10010000 L
b10011000 '
b10011000 K
b110011011101100111001000000101 )
b110011011101100111001000000101 H
b110011011101100111001000000101 \
12
#516000
b110000 A
#520000
02
#525000
1O
b10100000 P
b10011100 T
b10011000 M
b110011011101100111001000000101 *
b110011011101100111001000000101 J
b10010100 $
b10010100 L
b10011100 '
b10011100 K
b1110000001100100110100100110010 )
b1110000001100100110100100110010 H
b1110000001100100110100100110010 \
12
#526000
b110001 A
#530000
02
#535000
1O
b10100100 P
b10100000 T
b10011100 M
b1110000001100100110100100110010 *
b1110000001100100110100100110010 J
b10011000 $
b10011000 L
b10100000 '
b10100000 K
b110001 )
b110001 H
b110001 \
12
#536000
b110010 A
#540000
02
#545000
1O
b10101000 P
b10100100 T
b10100000 M
b110001 *
b110001 J
b10011100 $
b10011100 L
b10100100 '
b10100100 K
b0 )
b0 H
b0 \
12
#546000
b110011 A
#550000
02
#555000
1O
b10101100 P
b10101000 T
b10100100 M
b0 *
b0 J
b10100000 $
b10100000 L
b10101000 '
b10101000 K
12
#556000
b110100 A
#560000
02
#565000
1O
b10110000 P
b10101100 T
b10101000 M
b10100100 $
b10100100 L
b10101100 '
b10101100 K
12
#566000
b110101 A
#570000
02
#575000
1O
b10110100 P
b10110000 T
b10101100 M
b10101000 $
b10101000 L
b10110000 '
b10110000 K
12
#576000
b110110 A
#580000
02
#585000
1O
b10111000 P
b10110100 T
b10110000 M
b10101100 $
b10101100 L
b10110100 '
b10110100 K
12
#586000
b110111 A
#590000
02
#595000
1O
b10111100 P
b10111000 T
b10110100 M
b10110000 $
b10110000 L
b10111000 '
b10111000 K
12
#596000
b111000 A
#600000
02
#605000
1O
b11000000 P
b10111100 T
b10111000 M
b10110100 $
b10110100 L
b10111100 '
b10111100 K
12
#606000
b111001 A
#610000
02
#615000
1O
b11000100 P
b11000000 T
b10111100 M
b10111000 $
b10111000 L
b11000000 '
b11000000 K
12
#616000
b111010 A
#620000
02
#625000
1O
b11001000 P
b11000100 T
b11000000 M
b10111100 $
b10111100 L
b11000100 '
b11000100 K
12
#626000
b111011 A
#630000
02
#635000
1O
b11001100 P
b11001000 T
b11000100 M
b11000000 $
b11000000 L
b11001000 '
b11001000 K
12
#636000
b111100 A
#640000
02
#645000
1O
b11010000 P
b11001100 T
b11001000 M
b11000100 $
b11000100 L
b11001100 '
b11001100 K
12
#646000
b111101 A
#650000
02
#655000
1O
b11010100 P
b11010000 T
b11001100 M
b11001000 $
b11001000 L
b11010000 '
b11010000 K
12
#656000
b111110 A
#660000
02
#665000
1O
b11011000 P
b11010100 T
b11010000 M
b11001100 $
b11001100 L
b11010100 '
b11010100 K
12
#666000
b111111 A
#670000
02
#675000
1O
b11011100 P
b11011000 T
b11010100 M
b11010000 $
b11010000 L
b11011000 '
b11011000 K
12
#676000
b1000000 A
#680000
02
#685000
1O
b11100000 P
b11011100 T
b11011000 M
b11010100 $
b11010100 L
b11011100 '
b11011100 K
12
#686000
b1000001 A
#690000
02
#695000
1O
b11100100 P
b11100000 T
b11011100 M
b11011000 $
b11011000 L
b11100000 '
b11100000 K
12
#696000
b1000010 A
#700000
02
#705000
1O
b11101000 P
b11100100 T
b11100000 M
b11011100 $
b11011100 L
b11100100 '
b11100100 K
12
#706000
b1000011 A
#710000
02
#715000
1O
b11101100 P
b11101000 T
b11100100 M
b11100000 $
b11100000 L
b11101000 '
b11101000 K
12
#716000
b1000100 A
#720000
02
#725000
1O
b11110000 P
b11101100 T
b11101000 M
b11100100 $
b11100100 L
b11101100 '
b11101100 K
12
#726000
b1000101 A
#730000
02
#735000
1O
b11110100 P
b11110000 T
b11101100 M
b11101000 $
b11101000 L
b11110000 '
b11110000 K
12
#736000
b1000110 A
#740000
02
#745000
1O
b11111000 P
b11110100 T
b11110000 M
b11101100 $
b11101100 L
b11110100 '
b11110100 K
12
#746000
b1000111 A
#750000
02
#755000
1O
b11111100 P
b11111000 T
b11110100 M
b11110000 $
b11110000 L
b11111000 '
b11111000 K
12
#756000
b1001000 A
#760000
02
#765000
1O
b100000000 P
b11111100 T
b11111000 M
b11110100 $
b11110100 L
b11111100 '
b11111100 K
12
#766000
b1001001 A
#770000
02
#775000
1O
b100000100 P
b100000000 T
b11111100 M
b11111000 $
b11111000 L
b100000000 '
b100000000 K
12
#776000
b1001010 A
#780000
02
#785000
1O
b100001000 P
b100000100 T
b100000000 M
b11111100 $
b11111100 L
b100000100 '
b100000100 K
12
#786000
b1001011 A
#790000
02
#795000
1O
b100001100 P
b100001000 T
b100000100 M
b100000000 $
b100000000 L
b100001000 '
b100001000 K
12
#796000
b1001100 A
#800000
02
#805000
1O
b100010000 P
b100001100 T
b100001000 M
b100000100 $
b100000100 L
b100001100 '
b100001100 K
12
#806000
b1001101 A
#810000
02
#815000
1O
b100010100 P
b100010000 T
b100001100 M
b100001000 $
b100001000 L
b100010000 '
b100010000 K
12
#816000
b1001110 A
#820000
02
#825000
1O
b100011000 P
b100010100 T
b100010000 M
b100001100 $
b100001100 L
b100010100 '
b100010100 K
12
#826000
b1001111 A
#830000
02
#835000
1O
b100011100 P
b100011000 T
b100010100 M
b100010000 $
b100010000 L
b100011000 '
b100011000 K
12
#836000
b1010000 A
#840000
02
#845000
1O
b100100000 P
b100011100 T
b100011000 M
b100010100 $
b100010100 L
b100011100 '
b100011100 K
12
#846000
b1010001 A
#850000
02
#855000
1O
b100100100 P
b100100000 T
b100011100 M
b100011000 $
b100011000 L
b100100000 '
b100100000 K
12
#856000
b1010010 A
#860000
02
#865000
1O
b100101000 P
b100100100 T
b100100000 M
b100011100 $
b100011100 L
b100100100 '
b100100100 K
12
#866000
b1010011 A
#870000
02
#875000
1O
b100101100 P
b100101000 T
b100100100 M
b100100000 $
b100100000 L
b100101000 '
b100101000 K
12
#876000
b1010100 A
#880000
02
#885000
1O
b100110000 P
b100101100 T
b100101000 M
b100100100 $
b100100100 L
b100101100 '
b100101100 K
12
#886000
b1010101 A
#890000
02
#895000
1O
b100110100 P
b100110000 T
b100101100 M
b100101000 $
b100101000 L
b100110000 '
b100110000 K
12
#896000
b1010110 A
#900000
02
#905000
1O
b100111000 P
b100110100 T
b100110000 M
b100101100 $
b100101100 L
b100110100 '
b100110100 K
12
#906000
b1010111 A
#910000
02
#915000
1O
b100111100 P
b100111000 T
b100110100 M
b100110000 $
b100110000 L
b100111000 '
b100111000 K
12
#916000
b1011000 A
#920000
02
#925000
1O
b101000000 P
b100111100 T
b100111000 M
b100110100 $
b100110100 L
b100111100 '
b100111100 K
12
#926000
b1011001 A
#930000
02
#935000
1O
b101000100 P
b101000000 T
b100111100 M
b100111000 $
b100111000 L
b101000000 '
b101000000 K
12
#936000
b1011010 A
#940000
02
#945000
1O
b101001000 P
b101000100 T
b101000000 M
b100111100 $
b100111100 L
b101000100 '
b101000100 K
12
#946000
b1011011 A
#950000
02
#955000
1O
b101001100 P
b101001000 T
b101000100 M
b101000000 $
b101000000 L
b101001000 '
b101001000 K
12
#956000
b1011100 A
#960000
02
#965000
1O
b101010000 P
b101001100 T
b101001000 M
b101000100 $
b101000100 L
b101001100 '
b101001100 K
12
#966000
b1011101 A
#970000
02
#975000
1O
b101010100 P
b101010000 T
b101001100 M
b101001000 $
b101001000 L
b101010000 '
b101010000 K
12
#976000
b1011110 A
#980000
02
#985000
1O
b101011000 P
b101010100 T
b101010000 M
b101001100 $
b101001100 L
b101010100 '
b101010100 K
12
#986000
b1011111 A
#990000
02
#995000
1O
b101011100 P
b101011000 T
b101010100 M
b101010000 $
b101010000 L
b101011000 '
b101011000 K
12
#996000
b1100000 A
#1000000
02
#1005000
1O
b101100000 P
b101011100 T
b101011000 M
b101010100 $
b101010100 L
b101011100 '
b101011100 K
12
#1006000
b1100001 A
#1010000
02
#1015000
1O
b101100100 P
b101100000 T
b101011100 M
b101011000 $
b101011000 L
b101100000 '
b101100000 K
12
#1016000
b1100010 A
#1020000
02
#1025000
1O
b101101000 P
b101100100 T
b101100000 M
b101011100 $
b101011100 L
b101100100 '
b101100100 K
12
#1026000
b1100011 A
#1030000
02
#1035000
1O
b101101100 P
b101101000 T
b101100100 M
b101100000 $
b101100000 L
b101101000 '
b101101000 K
12
#1036000
b1100100 A
#1040000
02
#1045000
1O
b101110000 P
b101101100 T
b101101000 M
b101100100 $
b101100100 L
b101101100 '
b101101100 K
12
#1046000
b1100101 A
#1050000
02
#1055000
1O
b101110100 P
b101110000 T
b101101100 M
b101101000 $
b101101000 L
b101110000 '
b101110000 K
12
#1056000
b1100110 A
#1060000
02
#1065000
1O
b101111000 P
b101110100 T
b101110000 M
b101101100 $
b101101100 L
b101110100 '
b101110100 K
12
#1066000
b1100111 A
#1070000
02
#1075000
1O
b101111100 P
b101111000 T
b101110100 M
b101110000 $
b101110000 L
b101111000 '
b101111000 K
12
#1076000
b1101000 A
#1080000
02
#1085000
1O
b110000000 P
b101111100 T
b101111000 M
b101110100 $
b101110100 L
b101111100 '
b101111100 K
12
#1086000
b1101001 A
#1090000
02
#1095000
1O
b110000100 P
b110000000 T
b101111100 M
b101111000 $
b101111000 L
b110000000 '
b110000000 K
12
#1096000
b1101010 A
#1100000
02
#1105000
1O
b110001000 P
b110000100 T
b110000000 M
b101111100 $
b101111100 L
b110000100 '
b110000100 K
12
#1106000
b1101011 A
#1110000
02
#1115000
1O
b110001100 P
b110001000 T
b110000100 M
b110000000 $
b110000000 L
b110001000 '
b110001000 K
12
#1116000
b1101100 A
#1120000
02
#1125000
1O
b110010000 P
b110001100 T
b110001000 M
b110000100 $
b110000100 L
b110001100 '
b110001100 K
12
#1126000
b1101101 A
#1130000
02
#1135000
1O
b110010100 P
b110010000 T
b110001100 M
b110001000 $
b110001000 L
b110010000 '
b110010000 K
12
#1136000
b1101110 A
#1140000
02
#1145000
1O
b110011000 P
b110010100 T
b110010000 M
b110001100 $
b110001100 L
b110010100 '
b110010100 K
12
#1146000
b1101111 A
#1150000
02
#1155000
1O
b110011100 P
b110011000 T
b110010100 M
b110010000 $
b110010000 L
b110011000 '
b110011000 K
12
#1156000
b1110000 A
#1160000
02
#1165000
1O
b110100000 P
b110011100 T
b110011000 M
b110010100 $
b110010100 L
b110011100 '
b110011100 K
12
#1166000
b1110001 A
#1170000
02
#1175000
1O
b110100100 P
b110100000 T
b110011100 M
b110011000 $
b110011000 L
b110100000 '
b110100000 K
12
#1176000
b1110010 A
#1180000
02
#1185000
1O
b110101000 P
b110100100 T
b110100000 M
b110011100 $
b110011100 L
b110100100 '
b110100100 K
12
#1186000
b1110011 A
#1190000
02
#1195000
1O
b110101100 P
b110101000 T
b110100100 M
b110100000 $
b110100000 L
b110101000 '
b110101000 K
12
#1196000
b1110100 A
#1200000
02
#1205000
1O
b110110000 P
b110101100 T
b110101000 M
b110100100 $
b110100100 L
b110101100 '
b110101100 K
12
#1206000
b1110101 A
#1210000
02
#1215000
1O
b110110100 P
b110110000 T
b110101100 M
b110101000 $
b110101000 L
b110110000 '
b110110000 K
12
#1216000
b1110110 A
#1220000
02
#1225000
1O
b110111000 P
b110110100 T
b110110000 M
b110101100 $
b110101100 L
b110110100 '
b110110100 K
12
#1226000
b1110111 A
#1230000
02
#1235000
1O
b110111100 P
b110111000 T
b110110100 M
b110110000 $
b110110000 L
b110111000 '
b110111000 K
12
#1236000
b1111000 A
#1240000
02
#1245000
1O
b111000000 P
b110111100 T
b110111000 M
b110110100 $
b110110100 L
b110111100 '
b110111100 K
12
#1246000
b1111001 A
#1250000
02
#1255000
1O
b111000100 P
b111000000 T
b110111100 M
b110111000 $
b110111000 L
b111000000 '
b111000000 K
12
#1256000
b1111010 A
#1260000
02
#1265000
1O
b111001000 P
b111000100 T
b111000000 M
b110111100 $
b110111100 L
b111000100 '
b111000100 K
12
#1266000
b1111011 A
#1270000
02
#1275000
1O
b111001100 P
b111001000 T
b111000100 M
b111000000 $
b111000000 L
b111001000 '
b111001000 K
12
#1276000
b1111100 A
#1280000
02
#1285000
1O
b111010000 P
b111001100 T
b111001000 M
b111000100 $
b111000100 L
b111001100 '
b111001100 K
12
#1286000
b1111101 A
#1290000
02
#1295000
1O
b111010100 P
b111010000 T
b111001100 M
b111001000 $
b111001000 L
b111010000 '
b111010000 K
12
#1296000
b1111110 A
#1300000
02
#1305000
1O
b111011000 P
b111010100 T
b111010000 M
b111001100 $
b111001100 L
b111010100 '
b111010100 K
12
#1306000
b1111111 A
#1310000
02
#1315000
1O
b111011100 P
b111011000 T
b111010100 M
b111010000 $
b111010000 L
b111011000 '
b111011000 K
12
#1316000
b10000000 A
#1320000
02
