RTL/hw/vcds/memory_tb.vcd
$date
	Wed Aug  7 12:00:08 2024
$end
$version
	Icarus Verilog
$end
$timescale
	1ps
$end
$scope module memory_tb $end
$var wire 1 ! main_memory_wb_stall $end
$var wire 1 " rs_rd_en $end
$var wire 1 # stall_decode $end
$var wire 1 $ stall_execute $end
$var wire 1 % stall_fetch $end
$var wire 1 & stall_memory $end
$var wire 1 ' writeback_flush $end
$var wire 1 ( writeback_clk_en $end
$var wire 1 ) stall_from_execute $end
$var wire 32 * regs_rs2_rd_data [31:0] $end
$var wire 32 + regs_rs1_rd_data [31:0] $end
$var wire 1 , memory_stall $end
$var wire 1 - memory_rd_wr_en $end
$var wire 32 . memory_rd_wr_data [31:0] $end
$var wire 5 / memory_rd [4:0] $end
$var wire 32 0 memory_pc [31:0] $end
$var wire 11 1 memory_opcode_type [10:0] $end
$var wire 3 2 memory_funct3 [2:0] $end
$var wire 1 3 memory_flush $end
$var wire 32 4 memory_data_load [31:0] $end
$var wire 1 5 memory_clk_en $end
$var wire 4 6 main_memory_wb_wr_sel [3:0] $end
$var wire 1 7 main_memory_wb_wr_en $end
$var wire 32 8 main_memory_wb_wr_data [31:0] $end
$var wire 1 9 main_memory_wb_stb $end
$var wire 32 : main_memory_wb_rd_data [31:0] $end
$var wire 1 ; main_memory_wb_cyc $end
$var wire 32 < main_memory_wb_addr [31:0] $end
$var wire 1 = main_memory_wb_ack $end
$var wire 1 > main_memory_instr_req $end
$var wire 32 ? main_memory_instr_addr [31:0] $end
$var wire 1 @ main_memory_instr_ack $end
$var wire 32 A main_memory_instr [31:0] $end
$var wire 32 B forward_rs2_data [31:0] $end
$var wire 32 C forward_rs1_data [31:0] $end
$var wire 32 D fetch_pc [31:0] $end
$var wire 32 E fetch_instr [31:0] $end
$var wire 1 F execute_stall $end
$var wire 32 G execute_rs2_data [31:0] $end
$var wire 32 H execute_rs1_data [31:0] $end
$var wire 5 I execute_rs1 [4:0] $end
$var wire 32 J execute_result [31:0] $end
$var wire 1 K execute_rd_wr_en $end
$var wire 32 L execute_rd_wr_data [31:0] $end
$var wire 1 M execute_rd_valid $end
$var wire 5 N execute_rd [4:0] $end
$var wire 32 O execute_pc [31:0] $end
$var wire 11 P execute_opcode_type [10:0] $end
$var wire 32 Q execute_next_pc [31:0] $end
$var wire 12 R execute_imm [11:0] $end
$var wire 32 S execute_funct3 [31:0] $end
$var wire 1 T execute_force_stall $end
$var wire 1 U execute_flush $end
$var wire 4 V execute_exception [3:0] $end
$var wire 1 W execute_clk_en $end
$var wire 32 X execute_change_pc [31:0] $end
$var wire 1 Y decode_stall $end
$var wire 5 Z decode_rs2 [4:0] $end
$var wire 5 [ decode_rs1 [4:0] $end
$var wire 5 \ decode_r_rs2 [4:0] $end
$var wire 5 ] decode_r_rs1 [4:0] $end
$var wire 5 ^ decode_r_rd [4:0] $end
$var wire 32 _ decode_pc [31:0] $end
$var wire 11 ` decode_opcode_type [10:0] $end
$var wire 32 a decode_imm [31:0] $end
$var wire 3 b decode_funct3 [2:0] $end
$var wire 1 c decode_flush $end
$var wire 4 d decode_exception [3:0] $end
$var wire 1 e decode_clk_en $end
$var wire 14 f decode_alu_type [13:0] $end
$var parameter 32 g ADDR_WIDTH $end
$var parameter 32 h CLK_PERIOD $end
$var parameter 32 i CLK_PERIOD_HALF $end
$var parameter 32 j CLK_PERIOD_QUAR $end
$var parameter 64 k MEMORY_BYTES $end
$var parameter 64 l MEMORY_DEPTH $end
$var parameter 104 m MEMORY_HEX $end
$var parameter 32 n PC_RESET $end
$var reg 1 o clk $end
$var reg 1 p prev_read $end
$var reg 1 q rst $end
$var reg 1 r writeback_change_pc $end
$var reg 32 s writeback_next_pc [31:0] $end
$var integer 32 t errors [31:0] $end
$var integer 32 u totals [31:0] $end
$scope function get_alu_info $end
$upscope $end
$scope function get_alu_type $end
$upscope $end
$scope function get_decode_info $end
$upscope $end
$scope function get_execute_info $end
$upscope $end
$scope function get_memory_info $end
$upscope $end
$scope function get_opcode_type $end
$scope begin $ivl_for_loop1 $end
$upscope $end
$upscope $end
$scope module decode_inst $end
$var wire 1 o clk $end
$var wire 5 v decode_rs1 [4:0] $end
$var wire 5 w decode_rs2 [4:0] $end
$var wire 1 x illegal_shift $end
$var wire 1 q rst $end
$var wire 1 # stall $end
$var wire 1 y stall_bit $end
$var wire 1 z system_noncsr $end
$var wire 1 { valid_opcode $end
$var wire 5 | rs2 [4:0] $end
$var wire 5 } rs1 [4:0] $end
$var wire 5 ~ rd [4:0] $end
$var wire 1 !" opcode_system $end
$var wire 1 "" opcode_store $end
$var wire 1 #" opcode_rtype $end
$var wire 1 $" opcode_lui $end
$var wire 1 %" opcode_load $end
$var wire 1 &" opcode_jalr $end
$var wire 1 '" opcode_jal $end
$var wire 1 (" opcode_itype $end
$var wire 1 )" opcode_fence $end
$var wire 1 *" opcode_branch $end
$var wire 1 +" opcode_auipc $end
$var wire 7 ," opcode [6:0] $end
$var wire 32 -" imm_x [31:0] $end
$var wire 32 ." imm_u [31:0] $end
$var wire 1 /" imm_sign_bit $end
$var wire 32 0" imm_s [31:0] $end
$var wire 32 1" imm_j [31:0] $end
$var wire 32 2" imm_i [31:0] $end
$var wire 32 3" imm_b [31:0] $end
$var wire 1 4" funct7_bit6 $end
$var wire 3 5" funct3 [2:0] $end
$var wire 1 U flush $end
$var wire 32 6" fetch_pc [31:0] $end
$var wire 32 7" fetch_instr [31:0] $end
$var wire 1 e clk_en $end
$var reg 1 8" alu_add $end
$var reg 1 9" alu_and $end
$var reg 1 :" alu_eq $end
$var reg 1 ;" alu_ge $end
$var reg 1 <" alu_geu $end
$var reg 1 =" alu_neq $end
$var reg 1 >" alu_or $end
$var reg 1 ?" alu_sll $end
$var reg 1 @" alu_slt $end
$var reg 1 A" alu_sltu $end
$var reg 1 B" alu_sra $end
$var reg 1 C" alu_srl $end
$var reg 1 D" alu_sub $end
$var reg 1 E" alu_xor $end
$var reg 14 F" decode_alu_type [13:0] $end
$var reg 4 G" decode_exception [3:0] $end
$var reg 3 H" decode_funct3 [2:0] $end
$var reg 32 I" decode_imm [31:0] $end
$var reg 11 J" decode_opcode_type [10:0] $end
$var reg 32 K" decode_pc [31:0] $end
$var reg 5 L" decode_r_rd [4:0] $end
$var reg 5 M" decode_r_rs1 [4:0] $end
$var reg 5 N" decode_r_rs2 [4:0] $end
$var reg 32 O" imm [31:0] $end
$var reg 1 W next_clk_en $end
$var reg 1 c next_flush $end
$var reg 1 Y next_stall $end
$scope begin alu_operation_decode $end
$upscope $end
$scope begin imm_decode $end
$upscope $end
$scope begin update_pipeline_control $end
$upscope $end
$scope begin update_stage_registers $end
$upscope $end
$scope begin update_stages_cotrol $end
$upscope $end
$upscope $end
$scope module execute_inst $end
$var wire 1 o clk $end
$var wire 1 W clk_en $end
$var wire 14 P" decode_alu_type [13:0] $end
$var wire 4 Q" decode_exception [3:0] $end
$var wire 32 R" decode_funct3 [31:0] $end
$var wire 32 S" decode_imm [31:0] $end
$var wire 11 T" decode_opcode_type [10:0] $end
$var wire 32 U" decode_pc [31:0] $end
$var wire 5 V" decode_r_rd [4:0] $end
$var wire 5 W" decode_r_rs1 [4:0] $end
$var wire 1 X" disable_write_rd $end
$var wire 32 Y" result_and [31:0] $end
$var wire 32 Z" result_or [31:0] $end
$var wire 32 [" result_xor [31:0] $end
$var wire 1 q rst $end
$var wire 1 $ stall $end
$var wire 1 \" stall_bit $end
$var wire 32 ]" result_sub [31:0] $end
$var wire 32 ^" result_srl [31:0] $end
$var wire 32 _" result_sra [31:0] $end
$var wire 32 `" result_sltu [31:0] $end
$var wire 32 a" result_slt [31:0] $end
$var wire 32 b" result_sll [31:0] $end
$var wire 32 c" result_neq [31:0] $end
$var wire 32 d" result_geu [31:0] $end
$var wire 32 e" result_ge [31:0] $end
$var wire 32 f" result_eq [31:0] $end
$var wire 32 g" result_add [31:0] $end
$var wire 32 h" pc_plus_4 [31:0] $end
$var wire 1 i" opcode_system $end
$var wire 1 j" opcode_store $end
$var wire 1 k" opcode_rtype $end
$var wire 1 l" opcode_lui $end
$var wire 1 m" opcode_load $end
$var wire 1 n" opcode_jalr $end
$var wire 1 o" opcode_jal $end
$var wire 1 p" opcode_itype $end
$var wire 1 q" opcode_fence $end
$var wire 1 r" opcode_branch $end
$var wire 1 s" opcode_auipc $end
$var wire 32 t" forward_rs2_data [31:0] $end
$var wire 32 u" forward_rs1_data [31:0] $end
$var wire 1 T force_stall $end
$var wire 1 3 flush $end
$var wire 32 v" base_pc_plus_imm [31:0] $end
$var wire 1 w" alu_xor $end
$var wire 1 x" alu_sub $end
$var wire 1 y" alu_srl $end
$var wire 1 z" alu_sra $end
$var wire 1 {" alu_sltu $end
$var wire 1 |" alu_slt $end
$var wire 1 }" alu_sll $end
$var wire 1 ~" alu_or $end
$var wire 1 !# alu_neq $end
$var wire 1 "# alu_geu $end
$var wire 1 ## alu_ge $end
$var wire 1 $# alu_eq $end
$var wire 1 %# alu_and $end
$var wire 1 &# alu_add $end
$var reg 32 '# base_pc [31:0] $end
$var reg 32 (# execute_change_pc [31:0] $end
$var reg 4 )# execute_exception [3:0] $end
$var reg 32 *# execute_funct3 [31:0] $end
$var reg 12 +# execute_imm [11:0] $end
$var reg 32 ,# execute_next_pc [31:0] $end
$var reg 11 -# execute_opcode_type [10:0] $end
$var reg 32 .# execute_pc [31:0] $end
$var reg 5 /# execute_rd [4:0] $end
$var reg 1 M execute_rd_valid $end
$var reg 32 0# execute_rd_wr_data [31:0] $end
$var reg 1 K execute_rd_wr_en $end
$var reg 32 1# execute_result [31:0] $end
$var reg 5 2# execute_rs1 [4:0] $end
$var reg 32 3# execute_rs1_data [31:0] $end
$var reg 32 4# execute_rs2_data [31:0] $end
$var reg 1 5 next_clk_en $end
$var reg 1 U next_flush $end
$var reg 1 F next_stall $end
$var reg 32 5# op_a [31:0] $end
$var reg 32 6# op_b [31:0] $end
$var reg 1 7# rd_valid $end
$var reg 32 8# rd_wr_data [31:0] $end
$var reg 1 9# rd_wr_en $end
$var reg 32 :# result [31:0] $end
$var reg 1 ) stall_from_execute $end
$scope begin check_exception_wrire_rd $end
$upscope $end
$scope begin check_stall $end
$upscope $end
$scope begin check_valid $end
$upscope $end
$scope begin compute_result $end
$upscope $end
$scope begin compute_writeback_rd_and_next_pc $end
$upscope $end
$scope begin update_registers $end
$upscope $end
$scope begin update_stage_control $end
$upscope $end
$upscope $end
$scope module fetch_inst $end
$var wire 1 ;# change_pc $end
$var wire 1 o clk $end
$var wire 1 <# disable_next_stage $end
$var wire 1 =# enable_update_registers $end
$var wire 1 ># execute_change_pc $end
$var wire 32 ?# execute_next_pc [31:0] $end
$var wire 1 c flush $end
$var wire 1 > main_memory_instr_req $end
$var wire 1 q rst $end
$var wire 1 % stall $end
$var wire 1 @# stall_bit $end
$var wire 1 r writeback_change_pc $end
$var wire 32 A# writeback_next_pc [31:0] $end
$var wire 1 @ main_memory_instr_ack $end
$var wire 32 B# main_memory_instr [31:0] $end
$var parameter 32 C# PC_RESET $end
$var reg 32 D# fetch_instr [31:0] $end
$var reg 32 E# main_memory_instr_addr [31:0] $end
$var reg 1 e next_clk_en $end
$var reg 32 F# pc [31:0] $end
$var reg 32 G# prev_pc [31:0] $end
$var reg 1 H# r_clk_en $end
$var reg 1 I# r_clk_en_d $end
$var reg 32 J# r_main_memory_instr_addr [31:0] $end
$var reg 1 K# r_stall $end
$var reg 32 L# stalled_instr [31:0] $end
$var reg 32 M# stalled_pc [31:0] $end
$upscope $end
$scope module forward_inst $end
$var wire 5 N# decode_r_rs1 [4:0] $end
$var wire 5 O# decode_r_rs2 [4:0] $end
$var wire 5 P# execute_rd [4:0] $end
$var wire 1 M execute_rd_valid $end
$var wire 32 Q# execute_rd_wr_data [31:0] $end
$var wire 1 K execute_rd_wr_en $end
$var wire 1 5 memory_clk_en $end
$var wire 1 R# next_rs1_is_on_execute_memory $end
$var wire 1 S# next_rs2_is_on_execute_memory $end
$var wire 32 T# regs_rs2_rd_data [31:0] $end
$var wire 32 U# regs_rs1_rd_data [31:0] $end
$var reg 1 T execute_force_stall $end
$var reg 32 V# forward_rs1_data [31:0] $end
$var reg 32 W# forward_rs2_data [31:0] $end
$scope begin forward_and_stall $end
$upscope $end
$upscope $end
$scope module main_memory_inst $end
$var wire 1 o clk $end
$var wire 12 X# instr_addr [11:0] $end
$var wire 1 > instr_stb $end
$var wire 12 Y# wb_addr [11:0] $end
$var wire 1 ! wb_stall $end
$var wire 4 Z# wb_wr_sel [3:0] $end
$var wire 1 7 wb_wr_en $end
$var wire 32 [# wb_wr_data [31:0] $end
$var wire 1 9 wb_stb $end
$var wire 1 ; wb_cyc $end
$var parameter 32 \# ADDR_WIDTH $end
$var parameter 64 ]# MEMORY_BYTES $end
$var parameter 64 ^# MEMORY_DEPTH $end
$var parameter 104 _# MEMORY_HEX $end
$var reg 32 `# instr [31:0] $end
$var reg 1 @ instr_ack $end
$var reg 1 = wb_ack $end
$var reg 32 a# wb_rd_data [31:0] $end
$scope begin sync_read_process $end
$upscope $end
$scope begin sync_write_process $end
$upscope $end
$upscope $end
$scope module memory_inst $end
$var wire 1 o clk $end
$var wire 1 5 clk_en $end
$var wire 3 b# execute_funct3 [2:0] $end
$var wire 11 c# execute_opcode_type [10:0] $end
$var wire 32 d# execute_pc [31:0] $end
$var wire 5 e# execute_rd [4:0] $end
$var wire 32 f# execute_rd_wr_data [31:0] $end
$var wire 1 K execute_rd_wr_en $end
$var wire 32 g# execute_result [31:0] $end
$var wire 32 h# execute_rs2_data [31:0] $end
$var wire 1 ' flush $end
$var wire 1 = main_memory_wb_ack $end
$var wire 32 i# main_memory_wb_rd_data [31:0] $end
$var wire 1 ! main_memory_wb_stall $end
$var wire 32 j# rd_data_word [31:0] $end
$var wire 1 q rst $end
$var wire 1 & stall $end
$var wire 1 k# stall_bit $end
$var wire 1 ) stall_from_execute $end
$var wire 1 l# which_half $end
$var wire 2 m# which_byte [1:0] $end
$var wire 16 n# rd_data_half1 [15:0] $end
$var wire 16 o# rd_data_half0 [15:0] $end
$var wire 8 p# rd_data_byte3 [7:0] $end
$var wire 8 q# rd_data_byte2 [7:0] $end
$var wire 8 r# rd_data_byte1 [7:0] $end
$var wire 8 s# rd_data_byte0 [7:0] $end
$var reg 32 t# main_memory_wb_addr [31:0] $end
$var reg 1 ; main_memory_wb_cyc $end
$var reg 1 9 main_memory_wb_stb $end
$var reg 32 u# main_memory_wb_wr_data [31:0] $end
$var reg 1 7 main_memory_wb_wr_en $end
$var reg 4 v# main_memory_wb_wr_sel [3:0] $end
$var reg 32 w# memory_data_load [31:0] $end
$var reg 3 x# memory_funct3 [2:0] $end
$var reg 11 y# memory_opcode_type [10:0] $end
$var reg 32 z# memory_pc [31:0] $end
$var reg 5 {# memory_rd [4:0] $end
$var reg 32 |# memory_rd_wr_data [31:0] $end
$var reg 1 - memory_rd_wr_en $end
$var reg 1 ( next_clk_en $end
$var reg 1 3 next_flush $end
$var reg 1 , next_stall $end
$var reg 1 }# pend_req $end
$var reg 32 ~# rd_data [31:0] $end
$var reg 32 !$ wr_data [31:0] $end
$var reg 4 "$ wr_sel [3:0] $end
$scope begin load_byte_unsigned $end
$upscope $end
$scope begin load_half_unsigned $end
$upscope $end
$scope begin load_store_byte $end
$upscope $end
$scope begin load_store_half $end
$upscope $end
$scope begin load_store_word $end
$upscope $end
$upscope $end
$scope module regs_inst $end
$var wire 1 o clk $end
$var wire 1 #$ need_write $end
$var wire 5 $$ rd [4:0] $end
$var wire 32 %$ rd_wr_data [31:0] $end
$var wire 1 K rd_wr_en $end
$var wire 5 &$ rs1 [4:0] $end
$var wire 5 '$ rs2 [4:0] $end
$var wire 1 " rs_rd_en $end
$var wire 1 q rst $end
$var wire 32 ($ rs2_rd_data [31:0] $end
$var wire 32 )$ rs1_rd_data [31:0] $end
$var reg 5 *$ r_rs1 [4:0] $end
$var reg 5 +$ r_rs2 [4:0] $end
$var integer 32 ,$ i [31:0] $end
$scope begin sync_read_process $end
$upscope $end
$scope begin sync_write_process $end
$scope begin reset_x $end
$upscope $end
$upscope $end
$upscope $end
$scope begin $ivl_for_loop0 $end
$var integer 32 -$ i [31:0] $end
$upscope $end
$scope task instruction_decode $end
$upscope $end
$scope task instruction_fetch $end
$upscope $end
$scope task reset $end
$upscope $end
$scope task test_decode $end
$upscope $end
$scope task test_writeback_change_pc $end
$upscope $end
$upscope $end
$enddefinitions $end
$comment Show the parameter values. $end
$dumpall
b101110001011110110100001100101011110000111001100101111011011000110001000101110011010000110010101111000 _#
b10000000000 ^#
b1000000000000 ]#
b1100 \#
b0 C#
b0 n
b101110001011110110100001100101011110000111001100101111011011000110001000101110011010000110010101111000 m
b10000000000 l
b1000000000000 k
b10 j
b101 i
b1010 h
b1100 g
$end
#0
$dumpvars
bx -$
b100000 ,$
b0 +$
b0 *$
b0 )$
b0 ($
b0 '$
b0 &$
b0 %$
b0 $$
0#$
b1 "$
b0 !$
b0 ~#
0}#
bx |#
bx {#
bx z#
bx y#
bx x#
bx w#
bx v#
bx u#
bx t#
b0 s#
b0 r#
b0 q#
b0 p#
b0 o#
b0 n#
b0 m#
0l#
0k#
b0 j#
b0 i#
b0 h#
b0 g#
b0 f#
b0 e#
b0 d#
b0 c#
b0 b#
b0 a#
b0 `#
bx [#
bx Z#
bx Y#
b0 X#
b0 W#
b0 V#
b0 U#
b0 T#
0S#
0R#
b0 Q#
b0 P#
b0 O#
b0 N#
b0 M#
b0 L#
0K#
b100 J#
0I#
0H#
b0 G#
b0 F#
b0 E#
b0 D#
b0 B#
b0 A#
1@#
b0 ?#
0>#
0=#
0<#
0;#
b0 :#
19#
b0 8#
17#
b0 6#
b0 5#
b0 4#
b0 3#
b0 2#
b0 1#
b0 0#
b0 /#
b0 .#
b0 -#
b0 ,#
b0 +#
b0 *#
b0 )#
b0 (#
b0 '#
0&#
0%#
0$#
0##
0"#
0!#
0~"
0}"
0|"
0{"
0z"
0y"
0x"
0w"
b0 v"
b0 u"
b0 t"
0s"
0r"
0q"
0p"
0o"
0n"
0m"
0l"
0k"
0j"
0i"
b100 h"
b0 g"
b1 f"
b1 e"
b1 d"
b0 c"
b0 b"
b0 a"
b0 `"
b0 _"
b0 ^"
b0 ]"
0\"
b0 ["
b0 Z"
b0 Y"
0X"
b0 W"
b0 V"
b0 U"
b0 T"
b0 S"
b0 R"
b0 Q"
b0 P"
b0 O"
b0 N"
b0 M"
b0 L"
b0 K"
b0 J"
b0 I"
b0 H"
b0 G"
b0 F"
0E"
0D"
0C"
0B"
0A"
0@"
0?"
0>"
0="
0<"
0;"
0:"
09"
08"
b0 7"
b0 6"
b0 5"
04"
b0 3"
b0 2"
b0 1"
b0 0"
0/"
b0 ."
b0 -"
b0 ,"
0+"
0*"
0)"
0("
0'"
0&"
0%"
0$"
0#"
0""
0!"
b0 ~
b0 }
b0 |
0{
0z
0y
0x
b0 w
b0 v
b0 u
b0 t
b0 s
0r
1q
xp
0o
b0 f
0e
b0 d
0c
b0 b
b0 a
b0 `
b0 _
b0 ^
b0 ]
b0 \
b0 [
b0 Z
0Y
b0 X
0W
b0 V
0U
0T
b0 S
b0 R
b0 Q
b0 P
b0 O
b0 N
0M
b0 L
0K
b0 J
b0 I
b0 H
b0 G
0F
b0 E
b0 D
b0 C
b0 B
b0 A
0@
b0 ?
0>
0=
bx <
0;
b0 :
09
bx 8
07
bx 6
05
bx 4
03
bx 2
bx 1
bx 0
bx /
bx .
0-
0,
b0 +
b0 *
0)
0(
0'
0&
0%
0$
0#
0"
0!
$end
#5000
bx ~#
b1 "$
bx s#
bx r#
bx q#
bx p#
bx o#
bx n#
bx j#
bx :
bx a#
bx i#
b111010000000000000010010011 A
b111010000000000000010010011 B#
b111010000000000000010010011 `#
b100000 ,$
1o
#10000
0q
b100000 -$
0o
#15000
1=#
1I#
b100 J#
1@#
1>
1H#
b111010000000000000010010011 L#
1o
#20000
0o
#25000
1{
0@#
b1110100 O"
18"
b1110100 -"
b111010000000000000000000000 ."
b1110100 1"
b100001100000 3"
b1100001 0"
b1110100 2"
1("
b10011 ,"
b1 ~
b10100 Z
b10100 w
b10100 '$
b10100 |
1I#
b1000 J#
b100 X#
b111010000000000000010010011 E
b111010000000000000010010011 7"
b111010000000000000010010011 D#
b100 ?
b100 E#
1@
1o
#30000
0o
#35000
1"
1I#
b1100 J#
b1000 X#
b100 G#
1e
b1000 ?
b1000 E#
b100000001000000010010011 A
b100000001000000010010011 B#
b100000001000000010010011 `#
1o
#40000
0o
#45000
b1110100 8#
b1110100 :#
b1110100 Z"
b1110100 ["
b1000 O"
1p"
1&#
b1110100 g"
b11111111111111111111111110001100 ]"
b1 a"
b1 `"
b0 f"
b1 c"
b0 e"
b0 d"
b1110100 6#
b1000 -"
b100000001000000000000000 ."
b1000000000001000 1"
b100000000000 3"
b1 0"
b1000 2"
b1 [
b1 v
b1 &$
b1 }
b1000 Z
b1000 w
b1000 '$
b1000 |
1I#
b10000 J#
b1100 X#
1W
b10 `
b10 J"
b10 T"
b1 f
b1 F"
b1 P"
b1110100 v"
b1110100 a
b1110100 I"
b1110100 S"
b1 ^
b1 L"
b1 V"
b10100 \
b10100 N"
b10100 O#
b10100 +$
b1000 G#
b100000001000000010010011 E
b100000001000000010010011 7"
b100000001000000010010011 D#
b100 D
b100 6"
b100 F#
b1100 ?
b1100 E#
b1000000100000011 A
b1000000100000011 B#
b1000000100000011 `#
1o
#50000
0o
#55000
b0 a"
b0 `"
b111010000000000 b"
b1 e"
b1 d"
b1110100 5#
b1111100 Z"
b1111100 ["
b1110100 C
b1110100 u"
b1110100 V#
b0 O"
08"
b1111100 g"
b1101100 ]"
b1000 6#
b1111100 :#
b100 '#
b1111100 8#
1R#
b1 "$
bx ~#
1#$
b0 -"
b1000000000000000 ."
b1000000000000000 1"
b10 3"
b10 0"
b0 2"
0("
1%"
b11 ,"
b10 ~
b0 Z
b0 w
b0 '$
b0 |
1I#
b10100 J#
b10000 X#
b1100 v"
b1000 a
b1000 I"
b1000 S"
b1000 \
b1000 N"
b1000 O#
b1 ]
b1 M"
b1 W"
b1 N#
b1000 h"
b100 _
b100 K"
b100 U"
b1000 +$
b1 *$
15
1M
b1110100 L
b1110100 0#
b1110100 Q#
b1110100 f#
b1110100 %$
1K
b1110100 R
b1110100 +#
b1 N
b1 /#
b1 P#
b1 e#
b1 $$
b1110100 J
b1110100 1#
b1110100 g#
b10 P
b10 -#
b10 c#
b1100 G#
b1000000100000011 E
b1000000100000011 7"
b1000000100000011 D#
b1000 D
b1000 6"
b1000 F#
b10000 ?
b10000 E#
b101100001000000110000011 A
b101100001000000110000011 B#
b101100001000000110000011 `#
1o
#60000
0o
#65000
07#
b0 Z"
b0 ["
b1011 O"
1m"
0p"
0&#
b1 f"
b0 c"
b0 6#
b0 g"
b0 ]"
b0 a"
b0 `"
b0 b"
b1 e"
b1 d"
b0 5#
b0 :#
b1000 '#
b0 8#
b1110100 +
b1110100 U#
b1110100 )$
b0 C
b0 u"
b0 V#
b1011 -"
b101100001000000000000000 ."
b1000100000001010 1"
b100000000010 3"
b11 0"
b1011 2"
b11 ~
b1011 Z
b1011 w
b1011 '$
b1011 |
1I#
b11000 J#
b10100 X#
b1110100 Y#
b100 `
b100 J"
b100 T"
b0 f
b0 F"
b0 P"
b1000 v"
b0 a
b0 I"
b0 S"
b10 ^
b10 L"
b10 V"
b0 \
b0 N"
b0 O#
b1100 h"
b1000 _
b1000 K"
b1000 U"
b0 +$
b100 O
b100 .#
b100 d#
b1111100 L
b1111100 0#
b1111100 Q#
b1111100 f#
b1111100 %$
b1000 R
b1000 +#
b1110100 H
b1110100 3#
b1 I
b1 2#
b1111100 J
b1111100 1#
b1111100 g#
b10000 G#
b101100001000000110000011 E
b101100001000000110000011 7"
b101100001000000110000011 D#
b1100 D
b1100 6"
b1100 F#
b10100 ?
b10100 E#
1(
b0 8
b0 [#
b0 u#
b1110100 <
b1110100 t#
b1 6
b1 Z#
b1 v#
b1110100 .
b1110100 |#
b1 /
b1 {#
1-
b0 0
b0 z#
b10 1
b10 y#
b0 2
b0 x#
1;
b11111111101000001000001000000011 A
b11111111101000001000001000000011 B#
b11111111101000001000001000000011 `#
1o
#70000
0o
#75000
0=#
b1000 Y"
1@#
0"
b111110000000000000 b"
b1111100 5#
1y
1Y
b1111111 Z"
b1110111 ["
0R#
b11111111111111111111111111111010 O"
1k#
1%
1#
1\"
1F
b10000111 g"
b1110001 ]"
b0 a"
b0 `"
b0 f"
b1 c"
b1 e"
b1 d"
b1011 6#
b1100 '#
b1111100 +
b1111100 U#
b1111100 )$
0T
b1111100 C
b1111100 u"
b1111100 V#
b1111100 Y#
b111111111010 -"
b11111111101000001000000000000000 ."
b11111111111111111111111111111010 2"
b11111111111111111111111111100100 0"
b11111111111111111111011111100100 3"
b11111111111100001000011111111010 1"
1/"
14"
b100 ~
b11010 Z
b11010 w
b11010 '$
b11010 |
1I#
b11100 J#
b11000 X#
b1 "$
b1111000 ~#
1$
1,
b1111000 s#
b1010110 r#
b110100 q#
b10010 p#
b101011001111000 o#
b1001000110100 n#
b10111 v"
b1011 a
b1011 I"
b1011 S"
b11 ^
b11 L"
b11 V"
b1011 \
b1011 N"
b1011 O#
b10000 h"
b1100 _
b1100 K"
b1100 U"
b1011 +$
b1000 O
b1000 .#
b1000 d#
1)
0M
b0 L
b0 0#
b0 Q#
b0 f#
b0 %$
b0 R
b0 +#
b10 N
b10 /#
b10 P#
b10 e#
b10 $$
b0 H
b0 3#
b0 J
b0 1#
b0 g#
b100 P
b100 -#
b100 c#
b1111100 <
b1111100 t#
b1111100 .
b1111100 |#
b100 0
b100 z#
b10100 G#
b11111111101000001000001000000011 E
b11111111101000001000001000000011 7"
b11111111101000001000001000000011 D#
b10000 D
b10000 6"
b10000 F#
b11000 ?
b11000 E#
b10010001101000101011001111000 j#
b10010001101000101011001111000 :
b10010001101000101011001111000 a#
b10010001101000101011001111000 i#
b111011100000000001010010011 A
b111011100000000001010010011 B#
b111011100000000001010010011 `#
1o
#80000
0o
#85000
b0 Y#
b1 "$
b1110111 ~#
b1110111 s#
b1010101 r#
b110011 q#
b10001 p#
b101010101110111 o#
b1000100110011 n#
b11000 G#
b111011100000000001010010011 L#
b10100 M#
1K#
0(
1}#
b0 <
b0 t#
19
b10001001100110101010101110111 j#
b10001001100110101010101110111 :
b10001001100110101010101110111 a#
b10001001100110101010101110111 i#
b10000000101000011001100011 A
b10000000101000011001100011 B#
b10000000101000011001100011 `#
1o
#90000
0o
#95000
1=#
0@#
0%
1"
0y
0Y
0k#
0#
0\"
0F
b10010011 s#
b0 r#
b1000000 q#
b111 p#
b10010011 o#
b11101000000 n#
b1 "$
b11111111111111111111111110010011 ~#
0$
0,
09
b111010000000000000010010011 j#
b111010000000000000010010011 :
b111010000000000000010010011 a#
b111010000000000000010010011 i#
1=
1o
#96000
1p
#100000
0o
#105000
1{
0=#
1@#
0"
1y
1Y
b11110000000000000000000000000000 b"
b1111000 Y"
b11111111111111111111111111111110 Z"
b11111111111111111111111110000110 ["
b1110111 O"
18"
1k#
1%
1#
1\"
1F
b1110110 g"
b10000010 ]"
b1 `"
b0 d"
b11111111111111111111111111111010 6#
b10000 '#
b1110111 -"
b111011100000000000000000000 ."
b1110111 2"
b1100101 0"
b100001100100 3"
b100001110110 1"
0/"
04"
1("
0%"
b10011 ,"
b101 ~
b0 [
b0 v
b0 &$
b0 }
b10111 Z
b10111 w
b10111 '$
b10111 |
1I#
b100000 J#
b11100 X#
b1 "$
b11111111111111111111111110010011 ~#
1$
1,
b1010 v"
b11111111111111111111111111111010 a
b11111111111111111111111111111010 I"
b11111111111111111111111111111010 S"
b100 ^
b100 L"
b100 V"
b11010 \
b11010 N"
b11010 O#
b10100 h"
b10000 _
b10000 K"
b10000 U"
b11010 +$
b1100 O
b1100 .#
b1100 d#
b1011 R
b1011 +#
b11 N
b11 /#
b11 P#
b11 e#
b11 $$
b1111100 H
b1111100 3#
0K#
b111011100000000001010010011 E
b111011100000000001010010011 7"
b111011100000000001010010011 D#
b10100 D
b10100 6"
b10100 F#
b11100 ?
b11100 E#
1(
b11111111111111111111111110010011 4
b11111111111111111111111110010011 w#
b0 .
b0 |#
b10 /
b10 {#
b1000 0
b1000 z#
b100 1
b100 y#
0}#
0=
1o
#106000
0p
#110000
0o
#115000
0(
1}#
19
b11100 G#
b10000000101000011001100011 L#
b11000 M#
1K#
b11111010101100000000001100010011 A
b11111010101100000000001100010011 B#
b11111010101100000000001100010011 `#
1o
#120000
0o
#125000
1=#
0@#
0%
1"
0y
0Y
0k#
0#
0\"
0F
b1 "$
b11111111111111111111111110010011 ~#
0$
0,
09
1=
1o
#126000
1p
#130000
0o
