RTL/hw/vcds/regs_tb.vcd
$date
	Thu Aug  1 08:51:59 2024
$end
$version
	Icarus Verilog
$end
$timescale
	1ps
$end
$scope module regs_tb $end
$var wire 32 ! rs2_rd_data [31:0] $end
$var wire 32 " rs1_rd_data [31:0] $end
$var parameter 32 # CLK_PERIOD $end
$var parameter 32 $ CLK_PERIOD_HALF $end
$var parameter 32 % CLK_PERIOD_QUAR $end
$var reg 1 & clk $end
$var reg 5 ' rd [4:0] $end
$var reg 32 ( rd_wr_data [31:0] $end
$var reg 1 ) rd_wr_en $end
$var reg 5 * rs1 [4:0] $end
$var reg 5 + rs2 [4:0] $end
$var reg 1 , rs_rd_en $end
$var reg 1 - rst $end
$var integer 32 . fails [31:0] $end
$var integer 32 / totals [31:0] $end
$scope module regs_inst $end
$var wire 1 & clk $end
$var wire 1 0 need_write $end
$var wire 5 1 rd [4:0] $end
$var wire 32 2 rd_wr_data [31:0] $end
$var wire 1 ) rd_wr_en $end
$var wire 5 3 rs1 [4:0] $end
$var wire 5 4 rs2 [4:0] $end
$var wire 1 , rs_rd_en $end
$var wire 1 - rst $end
$var wire 32 5 rs2_rd_data [31:0] $end
$var wire 32 6 rs1_rd_data [31:0] $end
$var reg 5 7 r_rs1 [4:0] $end
$var reg 5 8 r_rs2 [4:0] $end
$var integer 32 9 i [31:0] $end
$scope begin sync_read_process $end
$upscope $end
$scope begin sync_write_process $end
$upscope $end
$upscope $end
$scope task print_x $end
$upscope $end
$scope task read_rs $end
$upscope $end
$scope task test $end
$upscope $end
$scope task write_rd $end
$upscope $end
$upscope $end
$enddefinitions $end
$comment Show the parameter values. $end
$dumpall
b10 %
b101 $
b1010 #
$end
#0
$dumpvars
b100000 9
b0 8
b0 7
b0 6
b0 5
b0 4
b0 3
b0 2
b0 1
00
b0 /
b0 .
1-
0,
b0 +
b0 *
0)
b0 (
b0 '
0&
b0 "
b0 !
$end
#5000
b100000 9
1&
#10000
0&
#15000
b100000 9
1&
#20000
0&
#25000
b100000 9
1&
#30000
0&
#35000
b100000 9
1&
#40000
0&
#45000
b100000 9
1&
#50000
b10010010000101010011010100100100 (
b10010010000101010011010100100100 2
1)
0-
0&
b1 /
#55000
1&
#57000
0)
b10 /
#60000
10
b1000000100010010101111010000001 (
b1000000100010010101111010000001 2
b1 '
b1 1
1)
0&
#65000
1&
#67000
00
0)
b11 /
#70000
10
b100100001001101011000001001 (
b100100001001101011000001001 2
b10 '
b10 1
1)
0&
#75000
1&
#77000
00
0)
b100 /
#80000
10
b110001111100000101011001100011 (
b110001111100000101011001100011 2
b11 '
b11 1
1)
0&
#85000
1&
#87000
00
0)
b101 /
#90000
10
b10000110101110010111101100001101 (
b10000110101110010111101100001101 2
b100 '
b100 1
1)
0&
#95000
1&
#97000
00
0)
b110 /
#100000
10
b11000110110111111001100110001101 (
b11000110110111111001100110001101 2
b101 '
b101 1
1)
0&
#105000
1&
#107000
00
0)
b111 /
#110000
10
b110010110000101000010001100101 (
b110010110000101000010001100101 2
b110 '
b110 1
1)
0&
#115000
1&
#117000
00
0)
b1000 /
#120000
10
b1001001101110101001000010010 (
b1001001101110101001000010010 2
b111 '
b111 1
1)
0&
#125000
1&
#127000
00
0)
b1001 /
#130000
10
b10000000111100111110001100000001 (
b10000000111100111110001100000001 2
b1000 '
b1000 1
1)
0&
#135000
1&
#137000
00
0)
b1010 /
#140000
10
b10000110110101111100110100001101 (
b10000110110101111100110100001101 2
b1001 '
b1001 1
1)
0&
#145000
1&
#147000
00
0)
b1011 /
#150000
10
b10111011001000111111000101110110 (
b10111011001000111111000101110110 2
b1010 '
b1010 1
1)
0&
#155000
1&
#157000
00
0)
b1100 /
#160000
10
b10011110100011011100110100111101 (
b10011110100011011100110100111101 2
b1011 '
b1011 1
1)
0&
#165000
1&
#167000
00
0)
b1101 /
#170000
10
b11110110110101000101011111101101 (
b11110110110101000101011111101101 2
b1100 '
b1100 1
1)
0&
#175000
1&
#177000
00
0)
b1110 /
#180000
10
b11000110001011011111011110001100 (
b11000110001011011111011110001100 2
b1101 '
b1101 1
1)
0&
#185000
1&
#187000
00
0)
b1111 /
#190000
10
b11111100111111011110100111111001 (
b11111100111111011110100111111001 2
b1110 '
b1110 1
1)
0&
#195000
1&
#197000
00
0)
b10000 /
#200000
10
b1100011001101110010010011000110 (
b1100011001101110010010011000110 2
b1111 '
b1111 1
1)
0&
#205000
1&
#207000
00
0)
b10001 /
#210000
10
b1100010111101111000010011000101 (
b1100010111101111000010011000101 2
b10000 '
b10000 1
1)
0&
#215000
1&
#217000
00
0)
b10010 /
#220000
10
b1010101000100111101001010101010 (
b1010101000100111101001010101010 2
b10001 '
b10001 1
1)
0&
#225000
1&
#227000
00
0)
b10011 /
#230000
10
b11110010101011111111011111100101 (
b11110010101011111111011111100101 2
b10010 '
b10010 1
1)
0&
#235000
1&
#237000
00
0)
b10100 /
#240000
10
b111011110100100111001001110111 (
b111011110100100111001001110111 2
b10011 '
b10011 1
1)
0&
#245000
1&
#247000
00
0)
b10101 /
#250000
10
b1001001100101101011000010010 (
b1001001100101101011000010010 2
b10100 '
b10100 1
1)
0&
#255000
1&
#257000
00
0)
b10110 /
#260000
10
b11000111111011001101101110001111 (
b11000111111011001101101110001111 2
b10101 '
b10101 1
1)
0&
#265000
1&
#267000
00
0)
b10111 /
#270000
10
b11111001001100000110100111110010 (
b11111001001100000110100111110010 2
b10110 '
b10110 1
1)
0&
#275000
1&
#277000
00
0)
b11000 /
#280000
10
b1100111011101101001011011001110 (
b1100111011101101001011011001110 2
b10111 '
b10111 1
1)
0&
#285000
1&
#287000
00
0)
b11001 /
#290000
10
b1110100000000000111101011101000 (
b1110100000000000111101011101000 2
b11000 '
b11000 1
1)
0&
#295000
1&
#297000
00
0)
b11010 /
#300000
10
b1100010110010100100111011000101 (
b1100010110010100100111011000101 2
b11001 '
b11001 1
1)
0&
#305000
1&
#307000
00
0)
b11011 /
#310000
10
b10101110010110000100100101011100 (
b10101110010110000100100101011100 2
b11010 '
b11010 1
1)
0&
#315000
1&
#317000
00
0)
b11100 /
#320000
10
b1011110100011100010100010111101 (
b1011110100011100010100010111101 2
b11011 '
b11011 1
1)
0&
#325000
1&
#327000
00
0)
b11101 /
#330000
10
b10110101010110101100000101101 (
b10110101010110101100000101101 2
b11100 '
b11100 1
1)
0&
#335000
1&
#337000
00
0)
b11110 /
#340000
10
b110010101001110010011001100101 (
b110010101001110010011001100101 2
b11101 '
b11101 1
1)
0&
#345000
1&
#347000
00
0)
b11111 /
#350000
10
b110001111011110110001001100011 (
b110001111011110110001001100011 2
b11110 '
b11110 1
1)
0&
#355000
1&
#357000
00
0)
b100000 /
#360000
10
b10000101011100111000011100001010 (
b10000101011100111000011100001010 2
b11111 '
b11111 1
1)
0&
#365000
1&
#367000
00
0)
b100001 /
#370000
b1 +
b1 4
1,
0&
#375000
b1000000100010010101111010000001 !
b1000000100010010101111010000001 5
b1 8
1&
#377000
0,
b100010 /
#380000
b11 +
b11 4
b10 *
b10 3
1,
0&
#385000
b110001111100000101011001100011 !
b110001111100000101011001100011 5
b100100001001101011000001001 "
b100100001001101011000001001 6
b11 8
b10 7
1&
#387000
0,
b100011 /
#390000
b101 +
b101 4
b100 *
b100 3
1,
0&
#395000
b11000110110111111001100110001101 !
b11000110110111111001100110001101 5
b10000110101110010111101100001101 "
b10000110101110010111101100001101 6
b101 8
b100 7
1&
#397000
0,
b100100 /
#400000
b111 +
b111 4
b110 *
b110 3
1,
0&
#405000
b1001001101110101001000010010 !
b1001001101110101001000010010 5
b110010110000101000010001100101 "
b110010110000101000010001100101 6
b111 8
b110 7
1&
#407000
0,
b100101 /
#410000
b1001 +
b1001 4
b1000 *
b1000 3
1,
0&
#415000
b10000110110101111100110100001101 !
b10000110110101111100110100001101 5
b10000000111100111110001100000001 "
b10000000111100111110001100000001 6
b1001 8
b1000 7
1&
#417000
0,
b100110 /
#420000
b1011 +
b1011 4
b1010 *
b1010 3
1,
0&
#425000
b10011110100011011100110100111101 !
b10011110100011011100110100111101 5
b10111011001000111111000101110110 "
b10111011001000111111000101110110 6
b1011 8
b1010 7
1&
#427000
0,
b100111 /
#430000
b1101 +
b1101 4
b1100 *
b1100 3
1,
0&
#435000
b11000110001011011111011110001100 !
b11000110001011011111011110001100 5
b11110110110101000101011111101101 "
b11110110110101000101011111101101 6
b1101 8
b1100 7
1&
#437000
0,
b101000 /
#440000
b1111 +
b1111 4
b1110 *
b1110 3
1,
0&
#445000
b1100011001101110010010011000110 !
b1100011001101110010010011000110 5
b11111100111111011110100111111001 "
b11111100111111011110100111111001 6
b1111 8
b1110 7
1&
#447000
0,
b101001 /
#450000
b10001 +
b10001 4
b10000 *
b10000 3
1,
0&
#455000
b1010101000100111101001010101010 !
b1010101000100111101001010101010 5
b1100010111101111000010011000101 "
b1100010111101111000010011000101 6
b10001 8
b10000 7
1&
#457000
0,
b101010 /
#460000
b10011 +
b10011 4
b10010 *
b10010 3
1,
0&
#465000
b111011110100100111001001110111 !
b111011110100100111001001110111 5
b11110010101011111111011111100101 "
b11110010101011111111011111100101 6
b10011 8
b10010 7
1&
#467000
0,
b101011 /
#470000
b10101 +
b10101 4
b10100 *
b10100 3
1,
0&
#475000
b11000111111011001101101110001111 !
b11000111111011001101101110001111 5
b1001001100101101011000010010 "
b1001001100101101011000010010 6
b10101 8
b10100 7
1&
#477000
0,
b101100 /
#480000
b10111 +
b10111 4
b10110 *
b10110 3
1,
0&
#485000
b1100111011101101001011011001110 !
b1100111011101101001011011001110 5
b11111001001100000110100111110010 "
b11111001001100000110100111110010 6
b10111 8
b10110 7
1&
#487000
0,
b101101 /
#490000
b11001 +
b11001 4
b11000 *
b11000 3
1,
0&
#495000
b1100010110010100100111011000101 !
b1100010110010100100111011000101 5
b1110100000000000111101011101000 "
b1110100000000000111101011101000 6
b11001 8
b11000 7
1&
#497000
0,
b101110 /
#500000
b11011 +
b11011 4
b11010 *
b11010 3
1,
0&
#505000
b1011110100011100010100010111101 !
b1011110100011100010100010111101 5
b10101110010110000100100101011100 "
b10101110010110000100100101011100 6
b11011 8
b11010 7
1&
#507000
0,
b101111 /
#510000
b11101 +
b11101 4
b11100 *
b11100 3
1,
0&
#515000
b110010101001110010011001100101 !
b110010101001110010011001100101 5
b10110101010110101100000101101 "
b10110101010110101100000101101 6
b11101 8
b11100 7
1&
#517000
0,
b110000 /
#520000
b11111 +
b11111 4
b11110 *
b11110 3
1,
0&
#525000
b10000101011100111000011100001010 !
b10000101011100111000011100001010 5
b110001111011110110001001100011 "
b110001111011110110001001100011 6
b11111 8
b11110 7
1&
#527000
0,
